[?1049h[?1h=[1;36r[?12;25h[?12l[?25h[27m[m[H[2J[?25l[36;1HE325: ATTENTION
Found a swap file by the name ".122x.py.swp"
[10Cowned by: axel   dated: Wed Oct 24 19:28:23 2012
[9Cfile name: ~axel/projectEuler/122x.py
[10Cmodified: no
[9Cuser name: axel   host name: axel1234
[8Cprocess ID: 6684 (still running)
While opening file "122x.py"
[13Cdated: Wed Oct 24 20:46:17 2012
      NEWER than swap file!

(1) Another program may be editing the same file.  If this is the case,
    be careful not to end up with two different instances of the same
    file when making changes.  Quit, or continue with caution.
(2) An edit session for this file crashed.
    If this is the case, use ":recover" or "vim -r 122x.py"
    to recover the changes (see ":help recovery").
    If you did this already, delete the swap file ".122x.py.swp"
    to avoid this message.

Swap file ".122x.py.swp" already exists!
[O]pen Read-Only, (E)dit anyway, (R)ecover, (Q)uit, (A)bort:[?12l[?25h[36;1H[K[36;1H
Interrupt: Press ENTER or type command to continue[1;1H[L[?25l[2;1H[1m[34m~                                                                                                                                            [3;1H~                                                                                                                                            [4;1H~                                                                                                                                            [5;1H~                                                                                                                                            [6;1H~                                                                                                                                            [7;1H~                                                                                                                                            [8;1H~                                                                                                                                            [9;1H~                                                                                                                                            [10;1H~                                                                                                                                            [11;1H~                                                                                                                                            [12;1H~                                                                                                                                            [13;1H~                                                                                                                                            [14;1H~                                                                                                                                            [15;1H~                                                                                                                                            [16;1H~                                                                                                                                            [17;1H~                                                                                                                                            [18;1H~                                                                                                                                            [19;1H~                                                                                                                                            [20;1H~                                                                                                                                            [21;1H~                                                                                                                                            [22;1H~                                                                                                                                            [23;1H~                                                                                                                                            [24;1H~                                                                                                                                            [25;1H~                                                                                                                                            [26;1H~                                                                                                                                            [27;1H~                                                                                                                                            [28;1H~                                                                                                                                            [29;1H~                                                                                                                                            [30;1H~                                                                                                                                            [31;1H~                                                                                                                                            [32;1H~                                                                                                                                            [33;1H~                                                                                                                                            [34;1H~                                                                                                                                            [35;1H~                                                                                                                                            [m[36;124H0,0-1[9CAll[1;1H[?12l[?25h[?25l[36;1HType  :quit<Enter>  to exit Vim[36;124H[K[36;124H0,0-1[9CAll[1;1H[?12l[?25h[?25l[36;124H[K[36;124H0,0-1[9CAll[1;1H[?12l[?25h[?25l[36;124H[K[36;124H0,0-1[9CAll[1;1H[?12l[?25h[?25l[36;124H[K[36;124H0,0-1[9CAll[1;1H[?12l[?25h[?25l[36;124H[K[36;124H0,0-1[9CAll[1;1H[?12l[?25h[36;1H
[?1l>[?1049l